{
  "buildFiles": [
    "/Users/farazrasheed/Library/Android/sdk/ndk/21.3.6528147/build/cmake/android.toolchain.cmake",
    "/Users/farazrasheed/Library/Android/sdk/ndk/21.3.6528147/build/cmake/platforms.cmake",
    "/Users/farazrasheed/Documents/Digitify/Android-Repos/yapmain/app/CMakeLists.txt"
  ],
  "cleanCommands": [
    "/Users/farazrasheed/Library/Android/sdk/cmake/3.10.2.4988404/bin/ninja -C \"/Users/farazrasheed/Documents/Digitify/Android-Repos/yapmain/app/.cxx/cmake/qaDebug/armeabi-v7a\" clean"
  ],
  "buildTargetsCommand": "/Users/farazrasheed/Library/Android/sdk/cmake/3.10.2.4988404/bin/ninja  -C \"/Users/farazrasheed/Documents/Digitify/Android-Repos/yapmain/app/.cxx/cmake/qaDebug/armeabi-v7a\" {LIST_OF_TARGETS_TO_BUILD}",
  "libraries": {
    "native-lib-Debug-armeabi-v7a": {
      "artifactName": "native-lib",
      "buildCommand": "/Users/farazrasheed/Library/Android/sdk/cmake/3.10.2.4988404/bin/ninja -C \"/Users/farazrasheed/Documents/Digitify/Android-Repos/yapmain/app/.cxx/cmake/qaDebug/armeabi-v7a\" native-lib",
      "abi": "armeabi-v7a",
      "output": "/Users/farazrasheed/Documents/Digitify/Android-Repos/yapmain/app/build/intermediates/cmake/qaDebug/obj/armeabi-v7a/libnative-lib.so"
    }
  }
}