[
  {
    "level": "INFO",
    "message": "Start JSON generation. Platform version: 23 min SDK version: arm64-v8a",
    "file": "/Users/farazrasheed/Documents/Digitify/Android-Repos/yapmain/app/CMakeLists.txt",
    "tag": "qaRelease|arm64-v8a"
  },
  {
    "level": "INFO",
    "message": "Trying to locate CMake in local SDK repository.",
    "file": "/Users/farazrasheed/Documents/Digitify/Android-Repos/yapmain/app/CMakeLists.txt",
    "tag": "qaRelease|arm64-v8a"
  },
  {
    "level": "INFO",
    "message": "- CMake found in SDK at \u0027/Users/farazrasheed/Library/Android/sdk/cmake/3.10.2.4988404\u0027 had version \u00273.10.2\u0027",
    "file": "/Users/farazrasheed/Documents/Digitify/Android-Repos/yapmain/app/CMakeLists.txt",
    "tag": "qaRelease|arm64-v8a"
  },
  {
    "level": "INFO",
    "message": "CMake \u00273.18.1\u0027 found in SDK did not match requested version \u00273.10.2\u0027.",
    "file": "/Users/farazrasheed/Documents/Digitify/Android-Repos/yapmain/app/CMakeLists.txt",
    "tag": "qaRelease|arm64-v8a"
  },
  {
    "level": "INFO",
    "message": "JSON \u0027/Users/farazrasheed/Documents/Digitify/Android-Repos/yapmain/app/.cxx/cmake/qaRelease/arm64-v8a/android_gradle_build.json\u0027 was up-to-date",
    "file": "/Users/farazrasheed/Documents/Digitify/Android-Repos/yapmain/app/CMakeLists.txt",
    "tag": "qaRelease|arm64-v8a"
  },
  {
    "level": "INFO",
    "message": "JSON generation completed without problems",
    "file": "/Users/farazrasheed/Documents/Digitify/Android-Repos/yapmain/app/CMakeLists.txt",
    "tag": "qaRelease|arm64-v8a"
  }
]