{
  "stringTable": {
    "0": "/Users/farazrasheed/Documents/Digitify/Android-Repos/yapmain/app/.cxx/cmake/liveRelease/arm64-v8a",
    "1": "--target=aarch64-none-linux-android23 --gcc-toolchain=/Users/farazrasheed/Library/Android/sdk/ndk/21.3.6528147/toolchains/llvm/prebuilt/darwin-x86_64 --sysroot=/Users/farazrasheed/Library/Android/sdk/ndk/21.3.6528147/toolchains/llvm/prebuilt/darwin-x86_64/sysroot -Dnative_lib_EXPORTS -g -DANDROID -fdata-sections -ffunction-sections -funwind-tables -fstack-protector-strong -no-canonical-prefixes -D_FORTIFY_SOURCE=2 -Wformat -Werror=format-security -fvisibility=hidden -DLIVE -O2 -DNDEBUG -fPIC"
  },
  "buildFiles": [
    "/Users/farazrasheed/Library/Android/sdk/ndk/21.3.6528147/build/cmake/android.toolchain.cmake",
    "/Users/farazrasheed/Library/Android/sdk/ndk/21.3.6528147/build/cmake/platforms.cmake",
    "/Users/farazrasheed/Documents/Digitify/Android-Repos/yapmain/app/CMakeLists.txt"
  ],
  "cleanCommands": [
    "/Users/farazrasheed/Library/Android/sdk/cmake/3.10.2.4988404/bin/ninja -C \"/Users/farazrasheed/Documents/Digitify/Android-Repos/yapmain/app/.cxx/cmake/liveRelease/arm64-v8a\" clean"
  ],
  "buildTargetsCommand": "/Users/farazrasheed/Library/Android/sdk/cmake/3.10.2.4988404/bin/ninja  -C \"/Users/farazrasheed/Documents/Digitify/Android-Repos/yapmain/app/.cxx/cmake/liveRelease/arm64-v8a\" {LIST_OF_TARGETS_TO_BUILD}",
  "libraries": {
    "native-lib-Release-arm64-v8a": {
      "buildCommand": "/Users/farazrasheed/Library/Android/sdk/cmake/3.10.2.4988404/bin/ninja -C \"/Users/farazrasheed/Documents/Digitify/Android-Repos/yapmain/app/.cxx/cmake/liveRelease/arm64-v8a\" native-lib",
      "buildType": "release",
      "toolchain": "3123016572",
      "abi": "arm64-v8a",
      "artifactName": "native-lib",
      "files": [
        {
          "src": "/Users/farazrasheed/Documents/Digitify/Android-Repos/yapmain/app/src/main/cpp/native-lib.cpp",
          "flagsOrdinal": 1,
          "workingDirectoryOrdinal": 0
        },
        {
          "src": "/Users/farazrasheed/Documents/Digitify/Android-Repos/yapmain/app/src/main/cpp/base64.cpp",
          "flagsOrdinal": 1,
          "workingDirectoryOrdinal": 0
        }
      ],
      "headers": [],
      "output": "/Users/farazrasheed/Documents/Digitify/Android-Repos/yapmain/app/build/intermediates/cmake/liveRelease/obj/arm64-v8a/libnative-lib.so"
    }
  },
  "toolchains": {
    "3123016572": {
      "cppCompilerExecutable": "/Users/farazrasheed/Library/Android/sdk/ndk/21.3.6528147/toolchains/llvm/prebuilt/darwin-x86_64/bin/clang++"
    }
  },
  "cFileExtensions": [],
  "cppFileExtensions": [
    "cpp"
  ]
}