{
  "stringTable": {
    "0": "/Users/farazrasheed/Documents/Digitify/Android-Repos/yapmain/yapandroid/.cxx/cmake/stgDebug/armeabi-v7a",
    "1": "--target=armv7-none-linux-androideabi23 --gcc-toolchain=/Users/farazrasheed/Library/Android/sdk/ndk/21.1.6352462/toolchains/llvm/prebuilt/darwin-x86_64 --sysroot=/Users/farazrasheed/Library/Android/sdk/ndk/21.1.6352462/toolchains/llvm/prebuilt/darwin-x86_64/sysroot -Dnative_lib_EXPORTS -g -DANDROID -fdata-sections -ffunction-sections -funwind-tables -fstack-protector-strong -no-canonical-prefixes -D_FORTIFY_SOURCE=2 -march=armv7-a -mthumb -Wformat -Werror=format-security -DSTG -O0 -fno-limit-debug-info -fPIC"
  },
  "buildFiles": [
    "/Users/farazrasheed/Library/Android/sdk/ndk/21.1.6352462/build/cmake/platforms.cmake",
    "/Users/farazrasheed/Documents/Digitify/Android-Repos/yapmain/yapandroid/CMakeLists.txt",
    "/Users/farazrasheed/Library/Android/sdk/ndk/21.1.6352462/build/cmake/android.toolchain.cmake"
  ],
  "cleanCommands": [
    "/Users/farazrasheed/Library/Android/sdk/cmake/3.10.2.4988404/bin/ninja -C \"/Users/farazrasheed/Documents/Digitify/Android-Repos/yapmain/yapandroid/.cxx/cmake/stgDebug/armeabi-v7a\" clean"
  ],
  "buildTargetsCommand": "/Users/farazrasheed/Library/Android/sdk/cmake/3.10.2.4988404/bin/ninja  -C \"/Users/farazrasheed/Documents/Digitify/Android-Repos/yapmain/yapandroid/.cxx/cmake/stgDebug/armeabi-v7a\" {LIST_OF_TARGETS_TO_BUILD}",
  "libraries": {
    "native-lib-Debug-armeabi-v7a": {
      "buildCommand": "/Users/farazrasheed/Library/Android/sdk/cmake/3.10.2.4988404/bin/ninja -C \"/Users/farazrasheed/Documents/Digitify/Android-Repos/yapmain/yapandroid/.cxx/cmake/stgDebug/armeabi-v7a\" native-lib",
      "buildType": "debug",
      "toolchain": "2196026241",
      "abi": "armeabi-v7a",
      "artifactName": "native-lib",
      "files": [
        {
          "src": "/Users/farazrasheed/Documents/Digitify/Android-Repos/yapmain/yapandroid/src/main/cpp/native-lib.cpp",
          "flagsOrdinal": 1,
          "workingDirectoryOrdinal": 0
        },
        {
          "src": "/Users/farazrasheed/Documents/Digitify/Android-Repos/yapmain/yapandroid/src/main/cpp/base64.cpp",
          "flagsOrdinal": 1,
          "workingDirectoryOrdinal": 0
        }
      ],
      "headers": [],
      "output": "/Users/farazrasheed/Documents/Digitify/Android-Repos/yapmain/yapandroid/build/intermediates/cmake/stgDebug/obj/armeabi-v7a/libnative-lib.so"
    }
  },
  "toolchains": {
    "2196026241": {
      "cppCompilerExecutable": "/Users/farazrasheed/Library/Android/sdk/ndk/21.1.6352462/toolchains/llvm/prebuilt/darwin-x86_64/bin/clang++"
    }
  },
  "cFileExtensions": [],
  "cppFileExtensions": [
    "cpp"
  ]
}