{
  "buildFiles": [
    "/Users/farazrasheed/Library/Android/sdk/ndk/21.3.6528147/build/cmake/android.toolchain.cmake",
    "/Users/farazrasheed/Library/Android/sdk/ndk/21.3.6528147/build/cmake/platforms.cmake",
    "/Users/farazrasheed/Documents/Digitify/Android-Repos/yapmain/app/CMakeLists.txt"
  ],
  "cleanCommands": [
    "/Users/farazrasheed/Library/Android/sdk/cmake/3.10.2.4988404/bin/ninja -C \"/Users/farazrasheed/Documents/Digitify/Android-Repos/yapmain/app/.cxx/cmake/PreprodRelease/x86_64\" clean"
  ],
  "buildTargetsCommand": "/Users/farazrasheed/Library/Android/sdk/cmake/3.10.2.4988404/bin/ninja  -C \"/Users/farazrasheed/Documents/Digitify/Android-Repos/yapmain/app/.cxx/cmake/PreprodRelease/x86_64\" {LIST_OF_TARGETS_TO_BUILD}",
  "libraries": {
    "native-lib-Release-x86_64": {
      "artifactName": "native-lib",
      "buildCommand": "/Users/farazrasheed/Library/Android/sdk/cmake/3.10.2.4988404/bin/ninja -C \"/Users/farazrasheed/Documents/Digitify/Android-Repos/yapmain/app/.cxx/cmake/PreprodRelease/x86_64\" native-lib",
      "abi": "x86_64",
      "output": "/Users/farazrasheed/Documents/Digitify/Android-Repos/yapmain/app/build/intermediates/cmake/PreprodRelease/obj/x86_64/libnative-lib.so"
    }
  }
}