[
{
  "directory": "/Users/farazrasheed/Documents/Digitify/Android-Repos/yapmain/app/.cxx/cmake/yapinternalDebug/armeabi-v7a",
  "command": "/Users/farazrasheed/Library/Android/sdk/ndk/21.3.6528147/toolchains/llvm/prebuilt/darwin-x86_64/bin/clang++ --target=armv7-none-linux-androideabi23 --gcc-toolchain=/Users/farazrasheed/Library/Android/sdk/ndk/21.3.6528147/toolchains/llvm/prebuilt/darwin-x86_64 --sysroot=/Users/farazrasheed/Library/Android/sdk/ndk/21.3.6528147/toolchains/llvm/prebuilt/darwin-x86_64/sysroot  -Dnative_lib_EXPORTS  -g -DANDROID -fdata-sections -ffunction-sections -funwind-tables -fstack-protector-strong -no-canonical-prefixes -D_FORTIFY_SOURCE=2 -march=armv7-a -mthumb -Wformat -Werror=format-security  -fvisibility=hidden -DSTG -O0 -fno-limit-debug-info  -fPIC   -o CMakeFiles/native-lib.dir/src/main/cpp/native-lib.cpp.o -c /Users/farazrasheed/Documents/Digitify/Android-Repos/yapmain/app/src/main/cpp/native-lib.cpp",
  "file": "/Users/farazrasheed/Documents/Digitify/Android-Repos/yapmain/app/src/main/cpp/native-lib.cpp"
},

{
  "directory": "/Users/farazrasheed/Documents/Digitify/Android-Repos/yapmain/app/.cxx/cmake/yapinternalDebug/armeabi-v7a",
  "command": "/Users/farazrasheed/Library/Android/sdk/ndk/21.3.6528147/toolchains/llvm/prebuilt/darwin-x86_64/bin/clang++ --target=armv7-none-linux-androideabi23 --gcc-toolchain=/Users/farazrasheed/Library/Android/sdk/ndk/21.3.6528147/toolchains/llvm/prebuilt/darwin-x86_64 --sysroot=/Users/farazrasheed/Library/Android/sdk/ndk/21.3.6528147/toolchains/llvm/prebuilt/darwin-x86_64/sysroot  -Dnative_lib_EXPORTS  -g -DANDROID -fdata-sections -ffunction-sections -funwind-tables -fstack-protector-strong -no-canonical-prefixes -D_FORTIFY_SOURCE=2 -march=armv7-a -mthumb -Wformat -Werror=format-security  -fvisibility=hidden -DSTG -O0 -fno-limit-debug-info  -fPIC   -o CMakeFiles/native-lib.dir/src/main/cpp/base64.cpp.o -c /Users/farazrasheed/Documents/Digitify/Android-Repos/yapmain/app/src/main/cpp/base64.cpp",
  "file": "/Users/farazrasheed/Documents/Digitify/Android-Repos/yapmain/app/src/main/cpp/base64.cpp"
}
]