{
  "abi": "ARM64_V8A",
  "abiPlatformVersion": 23,
  "buildSettings": {
    "environmentVariables": []
  },
  "cmake": {
    "cmakeArtifactsBaseFolder": "/Users/farazrasheed/Documents/Digitify/Android-Repos/yapmain/app/.cxx/cmake/PreprodRelease/arm64-v8a",
    "cmakeServerLogFile": "/Users/farazrasheed/Documents/Digitify/Android-Repos/yapmain/app/.cxx/cmake/PreprodRelease/arm64-v8a/cmake_server_log.txt",
    "cmakeWrappingBaseFolder": "/Users/farazrasheed/Documents/Digitify/Android-Repos/yapmain/app/.cxx/cxx/PreprodRelease/arm64-v8a",
    "effectiveConfiguration": {
      "name": "traditional-android-studio-cmake-environment",
      "description": "Composite reified CMakeSettings configuration",
      "generator": "Ninja",
      "inheritEnvironments": [
        "ndk"
      ],
      "buildRoot": "/Users/farazrasheed/Documents/Digitify/Android-Repos/yapmain/app/.cxx/cmake/PreprodRelease/arm64-v8a",
      "cmakeToolchain": "/Users/farazrasheed/Library/Android/sdk/ndk/21.3.6528147/build/cmake/android.toolchain.cmake",
      "cmakeExecutable": "/Users/farazrasheed/Library/Android/sdk/cmake/3.10.2.4988404/bin/cmake",
      "variables": [
        {
          "name": "CMAKE_CXX_FLAGS",
          "value": "-fvisibility\u003dhidden -DPreprod"
        },
        {
          "name": "CMAKE_C_FLAGS",
          "value": "-fvisibility\u003dhidden"
        },
        {
          "name": "CMAKE_BUILD_TYPE",
          "value": "Release"
        },
        {
          "name": "CMAKE_TOOLCHAIN_FILE",
          "value": "/Users/farazrasheed/Library/Android/sdk/ndk/21.3.6528147/build/cmake/android.toolchain.cmake"
        },
        {
          "name": "ANDROID_ABI",
          "value": "arm64-v8a"
        },
        {
          "name": "ANDROID_NDK",
          "value": "/Users/farazrasheed/Library/Android/sdk/ndk/21.3.6528147"
        },
        {
          "name": "ANDROID_PLATFORM",
          "value": "android-23"
        },
        {
          "name": "CMAKE_ANDROID_ARCH_ABI",
          "value": "arm64-v8a"
        },
        {
          "name": "CMAKE_ANDROID_NDK",
          "value": "/Users/farazrasheed/Library/Android/sdk/ndk/21.3.6528147"
        },
        {
          "name": "CMAKE_EXPORT_COMPILE_COMMANDS",
          "value": "ON"
        },
        {
          "name": "CMAKE_LIBRARY_OUTPUT_DIRECTORY",
          "value": "/Users/farazrasheed/Documents/Digitify/Android-Repos/yapmain/app/build/intermediates/cmake/PreprodRelease/obj/arm64-v8a"
        },
        {
          "name": "CMAKE_MAKE_PROGRAM",
          "value": "/Users/farazrasheed/Library/Android/sdk/cmake/3.10.2.4988404/bin/ninja"
        },
        {
          "name": "CMAKE_SYSTEM_NAME",
          "value": "Android"
        },
        {
          "name": "CMAKE_SYSTEM_VERSION",
          "value": "23"
        }
      ]
    }
  },
  "cxxBuildFolder": "/Users/farazrasheed/Documents/Digitify/Android-Repos/yapmain/app/.cxx/cmake/PreprodRelease/arm64-v8a",
  "info": {
    "abi": "ARM64_V8A",
    "bitness": 64,
    "deprecated": false,
    "default": true
  },
  "originalCxxBuildFolder": "/Users/farazrasheed/Documents/Digitify/Android-Repos/yapmain/app/.cxx/cmake/PreprodRelease/arm64-v8a",
  "variant": {
    "buildSystemArgumentList": [],
    "buildTargetSet": [],
    "cFlagsList": [
      "-fvisibility\u003dhidden"
    ],
    "cmakeSettingsConfiguration": "android-gradle-plugin-predetermined-name",
    "cppFlagsList": [
      "-fvisibility\u003dhidden",
      "-DPreprod"
    ],
    "isDebuggableEnabled": false,
    "module": {
      "buildSystem": "CMAKE",
      "cmake": {
        "cmakeExe": "/Users/farazrasheed/Library/Android/sdk/cmake/3.10.2.4988404/bin/cmake",
        "minimumCmakeVersion": "3.10.2",
        "ninjaExe": "/Users/farazrasheed/Library/Android/sdk/cmake/3.10.2.4988404/bin/ninja"
      },
      "cmakeToolchainFile": "/Users/farazrasheed/Library/Android/sdk/ndk/21.3.6528147/build/cmake/android.toolchain.cmake",
      "cxxFolder": "/Users/farazrasheed/Documents/Digitify/Android-Repos/yapmain/app/.cxx",
      "gradleModulePathName": ":app",
      "intermediatesFolder": "/Users/farazrasheed/Documents/Digitify/Android-Repos/yapmain/app/build/intermediates",
      "makeFile": "/Users/farazrasheed/Documents/Digitify/Android-Repos/yapmain/app/CMakeLists.txt",
      "moduleBuildFile": "/Users/farazrasheed/Documents/Digitify/Android-Repos/yapmain/app/build.gradle",
      "moduleRootFolder": "/Users/farazrasheed/Documents/Digitify/Android-Repos/yapmain/app",
      "ndkDefaultAbiList": [
        "ARMEABI_V7A",
        "ARM64_V8A",
        "X86",
        "X86_64"
      ],
      "ndkFolder": "/Users/farazrasheed/Library/Android/sdk/ndk/21.3.6528147",
      "ndkMetaAbiList": [
        {
          "abi": "ARMEABI_V7A",
          "bitness": 32,
          "deprecated": false,
          "default": true
        },
        {
          "abi": "ARM64_V8A",
          "bitness": 64,
          "deprecated": false,
          "default": true
        },
        {
          "abi": "X86",
          "bitness": 32,
          "deprecated": false,
          "default": true
        },
        {
          "abi": "X86_64",
          "bitness": 64,
          "deprecated": false,
          "default": true
        }
      ],
      "ndkMetaPlatforms": {
        "min": 16,
        "max": 30,
        "aliases": {
          "20": 19,
          "25": 24,
          "J": 16,
          "J-MR1": 17,
          "J-MR2": 18,
          "K": 19,
          "L": 21,
          "L-MR1": 22,
          "M": 23,
          "N": 24,
          "N-MR1": 24,
          "O": 26,
          "O-MR1": 27,
          "P": 28,
          "Q": 29,
          "R": 30
        }
      },
      "ndkSupportedAbiList": [
        "ARMEABI_V7A",
        "ARM64_V8A",
        "X86",
        "X86_64"
      ],
      "ndkVersion": "21.3.6528147",
      "project": {
        "compilerSettingsCacheFolder": "/Users/farazrasheed/Documents/Digitify/Android-Repos/yapmain/.cxx",
        "cxxFolder": "/Users/farazrasheed/Documents/Digitify/Android-Repos/yapmain/.cxx",
        "isBuildOnlyTargetAbiEnabled": true,
        "isCmakeBuildCohabitationEnabled": false,
        "isNativeCompilerSettingsCacheEnabled": false,
        "rootBuildGradleFolder": "/Users/farazrasheed/Documents/Digitify/Android-Repos/yapmain",
        "sdkFolder": "/Users/farazrasheed/Library/Android/sdk"
      },
      "splitsAbiFilterSet": [],
      "stlSharedObjectMap": {
        "LIBCXX_SHARED": {
          "ARMEABI_V7A": "/Users/farazrasheed/Library/Android/sdk/ndk/21.3.6528147/toolchains/llvm/prebuilt/darwin-x86_64/sysroot/usr/lib/arm-linux-androideabi/libc++_shared.so",
          "ARM64_V8A": "/Users/farazrasheed/Library/Android/sdk/ndk/21.3.6528147/toolchains/llvm/prebuilt/darwin-x86_64/sysroot/usr/lib/aarch64-linux-android/libc++_shared.so",
          "X86": "/Users/farazrasheed/Library/Android/sdk/ndk/21.3.6528147/toolchains/llvm/prebuilt/darwin-x86_64/sysroot/usr/lib/i686-linux-android/libc++_shared.so",
          "X86_64": "/Users/farazrasheed/Library/Android/sdk/ndk/21.3.6528147/toolchains/llvm/prebuilt/darwin-x86_64/sysroot/usr/lib/x86_64-linux-android/libc++_shared.so"
        },
        "LIBCXX_STATIC": {},
        "NONE": {},
        "SYSTEM": {}
      }
    },
    "objFolder": "/Users/farazrasheed/Documents/Digitify/Android-Repos/yapmain/app/build/intermediates/cmake/PreprodRelease/obj",
    "variantName": "PreprodRelease",
    "validAbiList": [
      "ARMEABI_V7A",
      "ARM64_V8A",
      "X86",
      "X86_64"
    ]
  }
}